@relation 'ml.data-weka.filters.unsupervised.attribute.Remove-V-R37,40'

@attribute thal_normal numeric
@attribute num {'<50\% diameter narrowing','>50\% diameter narrowing'}

@data
0,'<50\% diameter narrowing'
1,'>50\% diameter narrowing'
0,'>50\% diameter narrowing'
1,'<50\% diameter narrowing'
1,'<50\% diameter narrowing'
1,'<50\% diameter narrowing'
1,'>50\% diameter narrowing'
1,'<50\% diameter narrowing'
0,'>50\% diameter narrowing'
0,'>50\% diameter narrowing'
0,'<50\% diameter narrowing'
1,'<50\% diameter narrowing'
0,'>50\% diameter narrowing'
0,'<50\% diameter narrowing'
0,'<50\% diameter narrowing'
1,'<50\% diameter narrowing'
0,'>50\% diameter narrowing'
1,'<50\% diameter narrowing'
1,'<50\% diameter narrowing'
1,'<50\% diameter narrowing'
1,'<50\% diameter narrowing'
1,'<50\% diameter narrowing'
1,'>50\% diameter narrowing'
0,'>50\% diameter narrowing'
0,'>50\% diameter narrowing'
1,'<50\% diameter narrowing'
1,'<50\% diameter narrowing'
1,'<50\% diameter narrowing'
1,'<50\% diameter narrowing'
0,'>50\% diameter narrowing'
1,'<50\% diameter narrowing'
0,'>50\% diameter narrowing'
1,'>50\% diameter narrowing'
0,'<50\% diameter narrowing'
1,'<50\% diameter narrowing'
1,'<50\% diameter narrowing'
0,'>50\% diameter narrowing'
0,'>50\% diameter narrowing'
0,'>50\% diameter narrowing'
1,'<50\% diameter narrowing'
0,'>50\% diameter narrowing'
0,'<50\% diameter narrowing'
1,'<50\% diameter narrowing'
1,'<50\% diameter narrowing'
1,'>50\% diameter narrowing'
0,'>50\% diameter narrowing'
1,'<50\% diameter narrowing'
0,'>50\% diameter narrowing'
1,'<50\% diameter narrowing'
1,'<50\% diameter narrowing'
1,'<50\% diameter narrowing'
0,'<50\% diameter narrowing'
1,'>50\% diameter narrowing'
1,'<50\% diameter narrowing'
0,'>50\% diameter narrowing'
0,'>50\% diameter narrowing'
0,'>50\% diameter narrowing'
0,'>50\% diameter narrowing'
1,'<50\% diameter narrowing'
1,'<50\% diameter narrowing'
0,'>50\% diameter narrowing'
1,'<50\% diameter narrowing'
0,'>50\% diameter narrowing'
1,'<50\% diameter narrowing'
0,'>50\% diameter narrowing'
0,'>50\% diameter narrowing'
1,'>50\% diameter narrowing'
0,'<50\% diameter narrowing'
0,'>50\% diameter narrowing'
1,'>50\% diameter narrowing'
1,'<50\% diameter narrowing'
0,'>50\% diameter narrowing'
0,'>50\% diameter narrowing'
0,'>50\% diameter narrowing'
1,'>50\% diameter narrowing'
1,'<50\% diameter narrowing'
0,'>50\% diameter narrowing'
1,'<50\% diameter narrowing'
1,'<50\% diameter narrowing'
0,'>50\% diameter narrowing'
1,'<50\% diameter narrowing'
1,'<50\% diameter narrowing'
1,'<50\% diameter narrowing'
0,'>50\% diameter narrowing'
1,'<50\% diameter narrowing'
1,'<50\% diameter narrowing'
1,'<50\% diameter narrowing'
0,'<50\% diameter narrowing'
1,'<50\% diameter narrowing'
1,'<50\% diameter narrowing'
1,'<50\% diameter narrowing'
0,'>50\% diameter narrowing'
0,'<50\% diameter narrowing'
1,'<50\% diameter narrowing'
1,'<50\% diameter narrowing'
0,'>50\% diameter narrowing'
0,'>50\% diameter narrowing'
0,'>50\% diameter narrowing'
1,'<50\% diameter narrowing'
1,'<50\% diameter narrowing'
1,'<50\% diameter narrowing'
1,'<50\% diameter narrowing'
1,'<50\% diameter narrowing'
1,'<50\% diameter narrowing'
0,'>50\% diameter narrowing'
0,'<50\% diameter narrowing'
0,'>50\% diameter narrowing'
0,'>50\% diameter narrowing'
0,'>50\% diameter narrowing'
0,'>50\% diameter narrowing'
0,'>50\% diameter narrowing'
1,'>50\% diameter narrowing'
0,'<50\% diameter narrowing'
0,'>50\% diameter narrowing'
0,'>50\% diameter narrowing'
0,'<50\% diameter narrowing'
1,'<50\% diameter narrowing'
1,'<50\% diameter narrowing'
0,'>50\% diameter narrowing'
0,'>50\% diameter narrowing'
0,'>50\% diameter narrowing'
0,'>50\% diameter narrowing'
1,'<50\% diameter narrowing'
0,'>50\% diameter narrowing'
1,'>50\% diameter narrowing'
1,'<50\% diameter narrowing'
0,'>50\% diameter narrowing'
0,'>50\% diameter narrowing'
1,'<50\% diameter narrowing'
1,'<50\% diameter narrowing'
0,'<50\% diameter narrowing'
0,'<50\% diameter narrowing'
1,'<50\% diameter narrowing'
1,'<50\% diameter narrowing'
1,'<50\% diameter narrowing'
1,'<50\% diameter narrowing'
0,'>50\% diameter narrowing'
0,'>50\% diameter narrowing'
0,'>50\% diameter narrowing'
1,'<50\% diameter narrowing'
1,'<50\% diameter narrowing'
0,'>50\% diameter narrowing'
1,'<50\% diameter narrowing'
0,'>50\% diameter narrowing'
0,'<50\% diameter narrowing'
1,'>50\% diameter narrowing'
0,'>50\% diameter narrowing'
1,'<50\% diameter narrowing'
1,'<50\% diameter narrowing'
1,'<50\% diameter narrowing'
0,'<50\% diameter narrowing'
1,'<50\% diameter narrowing'
0,'<50\% diameter narrowing'
0,'>50\% diameter narrowing'
1,'>50\% diameter narrowing'
1,'>50\% diameter narrowing'
0,'>50\% diameter narrowing'
0,'>50\% diameter narrowing'
0,'>50\% diameter narrowing'
0,'<50\% diameter narrowing'
0,'<50\% diameter narrowing'
1,'>50\% diameter narrowing'
1,'<50\% diameter narrowing'
1,'<50\% diameter narrowing'
1,'<50\% diameter narrowing'
0,'<50\% diameter narrowing'
1,'<50\% diameter narrowing'
1,'<50\% diameter narrowing'
0,'>50\% diameter narrowing'
1,'<50\% diameter narrowing'
0,'>50\% diameter narrowing'
0,'<50\% diameter narrowing'
1,'>50\% diameter narrowing'
1,'<50\% diameter narrowing'
0,'>50\% diameter narrowing'
0,'>50\% diameter narrowing'
0,'<50\% diameter narrowing'
0,'>50\% diameter narrowing'
1,'<50\% diameter narrowing'
1,'<50\% diameter narrowing'
0,'>50\% diameter narrowing'
0,'>50\% diameter narrowing'
1,'<50\% diameter narrowing'
0,'<50\% diameter narrowing'
1,'>50\% diameter narrowing'
1,'<50\% diameter narrowing'
0,'<50\% diameter narrowing'
0,'>50\% diameter narrowing'
0,'>50\% diameter narrowing'
0,'>50\% diameter narrowing'
1,'<50\% diameter narrowing'
0,'>50\% diameter narrowing'
0,'>50\% diameter narrowing'
1,'>50\% diameter narrowing'
1,'<50\% diameter narrowing'
1,'>50\% diameter narrowing'
1,'<50\% diameter narrowing'
1,'<50\% diameter narrowing'
1,'<50\% diameter narrowing'
1,'>50\% diameter narrowing'
1,'<50\% diameter narrowing'
1,'<50\% diameter narrowing'
0,'<50\% diameter narrowing'
0,'<50\% diameter narrowing'
0,'<50\% diameter narrowing'
0,'>50\% diameter narrowing'
0,'>50\% diameter narrowing'
0,'>50\% diameter narrowing'
1,'<50\% diameter narrowing'
1,'>50\% diameter narrowing'
1,'<50\% diameter narrowing'
0,'>50\% diameter narrowing'
1,'<50\% diameter narrowing'
0,'>50\% diameter narrowing'
1,'>50\% diameter narrowing'
0,'<50\% diameter narrowing'
1,'<50\% diameter narrowing'
1,'<50\% diameter narrowing'
1,'<50\% diameter narrowing'
1,'<50\% diameter narrowing'
1,'<50\% diameter narrowing'
1,'<50\% diameter narrowing'
1,'<50\% diameter narrowing'
0,'>50\% diameter narrowing'
1,'>50\% diameter narrowing'
1,'<50\% diameter narrowing'
1,'<50\% diameter narrowing'
1,'<50\% diameter narrowing'
1,'>50\% diameter narrowing'
1,'>50\% diameter narrowing'
1,'<50\% diameter narrowing'
1,'>50\% diameter narrowing'
1,'>50\% diameter narrowing'
1,'<50\% diameter narrowing'
1,'<50\% diameter narrowing'
1,'>50\% diameter narrowing'
0,'>50\% diameter narrowing'
0,'>50\% diameter narrowing'
1,'<50\% diameter narrowing'
1,'<50\% diameter narrowing'
1,'<50\% diameter narrowing'
1,'<50\% diameter narrowing'
1,'<50\% diameter narrowing'
1,'>50\% diameter narrowing'
1,'<50\% diameter narrowing'
1,'>50\% diameter narrowing'
0,'>50\% diameter narrowing'
1,'>50\% diameter narrowing'
0,'>50\% diameter narrowing'
1,'<50\% diameter narrowing'
0,'<50\% diameter narrowing'
0,'>50\% diameter narrowing'
0,'<50\% diameter narrowing'
1,'<50\% diameter narrowing'
1,'<50\% diameter narrowing'
1,'<50\% diameter narrowing'
1,'<50\% diameter narrowing'
1,'<50\% diameter narrowing'
1,'<50\% diameter narrowing'
0,'>50\% diameter narrowing'
1,'<50\% diameter narrowing'
1,'>50\% diameter narrowing'
1,'<50\% diameter narrowing'
1,'<50\% diameter narrowing'
1,'>50\% diameter narrowing'
0,'>50\% diameter narrowing'
0,'>50\% diameter narrowing'
0,'>50\% diameter narrowing'
0,'>50\% diameter narrowing'
1,'<50\% diameter narrowing'
0,'>50\% diameter narrowing'
0,'<50\% diameter narrowing'
0,'>50\% diameter narrowing'
1,'<50\% diameter narrowing'
1,'>50\% diameter narrowing'
0,'<50\% diameter narrowing'
1,'<50\% diameter narrowing'
1,'<50\% diameter narrowing'
1,'>50\% diameter narrowing'
1,'<50\% diameter narrowing'
0,'>50\% diameter narrowing'
1,'<50\% diameter narrowing'